APScheduler==2.1.2
Creoleparser==0.7.4
Django==1.6.4
Django-Select2==4.2.2
Fabric==1.8.3
Genshi==0.7
Markdown==2.4.1
PyYAML==3.11
Pygments==1.6
amqp==1.4.5
argparse==1.2.2
decorator==3.4.0
ecdsa==0.11
hgapi==1.7.1
ipaddr==2.1.11
lockfile==0.10.2
ordereddict==1.1
paramiko==1.12.4
ply==3.4
psycopg2==2.5.3
pycrypto==2.6.1
python-daemon==1.6
regex==2014.11.14
requests==1.2.3
simplejson==3.5.3
textile==2.2.1
wheel==0.24.0
